{
    "exp_name": "name of the experiment: string",
    "num_epochs": "number of epochs: int; 30",
    "root_path": "path where the experiments are stored: string; path to the type_inference_system folder",
    "path_source_dataset": "path to training dataset: string",
    "path_target_dataset": "path to test dataset: string",
    "pretrained_model": "use pretrained model: bool; 0",
    "model_path": "path where the pretrained model is located: string",
    "available_types": "available type hints (Short name of the dataset used in the preprocessing): string; mt4p or flask or numpy",
    "optimizer": "optimizer: string; adam",
    "train_insec_types": "use only predictable types: bool; 0",
    "dropout_rate": "dropout rate: float; 0.25",
    "output_size": "feature dimension: int; 4096",
    "weight_decay": "weight_decay: float; 0.0",
    "layers": "number of layers: int; 1",
    "hidden_size": "LSTM hidden size: int, 512",
    "margin": "margin (loss): float; 2.0",
    "k": "nearest neighbors: int, 10",
    "learning_rate": "learning rate: float; 0.002",
    "batch_size": "batch size: int; 2536",
    "lambda_coef": "lambda coefficient for domain adaptation: float; 1",
    "trainings_mode": "trainings mode of the system: string, source-only or target-only or dann or wdgrl or eval-only",
    "do_validation": "do validation (slows down training) - does not work at the moment: bool; 0",
    "save_best_model": "saves the best model in experiment folder: bool; 1",
    "save_features": "saves all features in experiment folder: bool; 1",
    "path_eval_data": "path to the saved features for evaluation: string",
    "early_stop": "use early stopping - does not work at the moment: bool; 0",
    "novelty_detection": "use novelty detection component: bool"
}